{
    "niv": {
        "branch": "master",
        "description": "Easy dependency management for Nix projects",
        "homepage": "https://github.com/nmattia/niv",
        "owner": "nmattia",
        "repo": "niv",
        "rev": "55422d6f2618cd2195eeafa3f16ae63fde723c15",
        "sha256": "1s6m41hhsydf3lw6ihksc904vcpyd5agwiqq8hb8plyqvsyn74ba",
        "type": "tarball",
        "url": "https://github.com/nmattia/niv/archive/55422d6f2618cd2195eeafa3f16ae63fde723c15.tar.gz",
        "url_template": "https://github.com/<owner>/<repo>/archive/<rev>.tar.gz"
    },
    "nixpkgs": {
        "branch": "release-24.11",
        "description": "Nix Packages collection",
        "homepage": "",
        "owner": "NixOS",
        "repo": "nixpkgs",
        "rev": "4baeebd055c7a40a7f80cc5ba4cf66dca98da752",
        "sha256": "12dbjshkhax50h0xlfvxa7p2vrsvj9inpvdwgn98j61lrj12pra9",
        "type": "tarball",
        "url": "https://github.com/NixOS/nixpkgs/archive/4baeebd055c7a40a7f80cc5ba4cf66dca98da752.tar.gz",
        "url_template": "https://github.com/<owner>/<repo>/archive/<rev>.tar.gz"
    }
}
